$MeshFormat
4.1 0 8
$EndMeshFormat
$Entities
2 2 1 0
1 0.5 0 0 0 
2 0.3 0 0 0 
1 -0.5000000999999999 -0.5000000999999999 -1e-07 0.5000000999999999 0.5000000999999999 1e-07 0 2 1 -1 
2 -0.3000001 -0.3000001 -1e-07 0.3000001 0.3000001 1e-07 0 2 2 -2 
1 -0.5000000999999999 -0.5000000999999999 -1e-07 0.5000000999999999 0.5000000999999999 1e-07 0 2 1 2 
$EndEntities
$Nodes
5 54 1 54
0 1 0 1
1
0.5 0 0
0 2 0 1
2
0.3 0 0
1 1 0 22
3
4
5
6
7
8
9
10
11
12
13
14
15
16
17
18
19
20
21
22
23
24
0.4814586436738996 0.1348983855785123 0
0.4272097022732441 0.259791975017717 0
0.3412765716093268 0.3654179821390623 0
0.2300325188655756 0.4439426092011878 0
0.1017280065263161 0.4895420438411616 0
-0.03412120668233666 0.4988343845952695 0
-0.1674398060854946 0.4711304610594097 0
-0.2883401610574353 0.4084849465052198 0
-0.3878556453522115 0.3155439721630244 0
-0.4586056507527277 0.1992005449231181 0
-0.4953429730181659 0.0680833245481198 0
-0.4953429730181648 -0.06808332454812717 0
-0.4586056507527247 -0.1992005449231249 0
-0.3878556453522068 -0.3155439721630302 0
-0.2883401610574293 -0.408484946505224 0
-0.1674398060854873 -0.4711304610594123 0
-0.03412120668232992 -0.49883438459527 0
0.1017280065263214 -0.4895420438411605 0
0.2300325188655793 -0.4439426092011859 0
0.3412765716093291 -0.3654179821390602 0
0.4272097022732452 -0.2597919750177153 0
0.4814586436738998 -0.1348983855785113 0
1 2 0 13
25
26
27
28
29
30
31
32
33
34
35
36
37
0.2702906603707256 0.1301651217352678 0
0.1870469405576195 0.2345494447404094 0
0.06675628018689336 0.2924783736545473 0
-0.06675628018689567 0.2924783736545468 0
-0.1870469405576211 0.2345494447404081 0
-0.2702906603707262 0.1301651217352664 0
-0.3 -1.02907469966573e-15 0
-0.2702906603707254 -0.1301651217352681 0
-0.1870469405576193 -0.2345494447404096 0
-0.06675628018689359 -0.2924783736545473 0
0.06675628018689504 -0.2924783736545469 0
0.1870469405576202 -0.2345494447404088 0
0.2702906603707258 -0.1301651217352673 0
2 1 0 17
38
39
40
41
42
43
44
45
46
47
48
49
50
51
52
53
54
0.3028574259776436 -0.2422476964510444 0
0.3028574259776426 0.242247696451045 0
-0.1840434604410716 -0.3428866525527615 0
-0.1840434604410753 0.3428866525527598 0
-0.3751141718164798 0.106305519394347 0
-0.3751141718164787 -0.1063055193943509 0
0.02363287020492882 -0.3885516398062915 0
0.02363287020492535 0.3885516398062919 0
0.3783976437872223 -0.09177756384134099 0
0.376917000060256 0.08602884565046542 0
0.1674358373907183 -0.3476840988948317 0
0.1674358373907166 0.347684098894832 0
-0.301432158753862 -0.2403841251595826 0
-0.3014321587538638 0.2403841251595805 0
-0.4081828579338578 -2.445987156494917e-15 0
-0.08574557663817538 0.3987763023336555 0
-0.08574557663817071 -0.3987763023336565 0
$EndNodes
$Elements
5 110 1 110
0 1 15 1
1 1 
0 2 15 1
2 2 
1 1 1 23
3 1 3 
4 3 4 
5 4 5 
6 5 6 
7 6 7 
8 7 8 
9 8 9 
10 9 10 
11 10 11 
12 11 12 
13 12 13 
14 13 14 
15 14 15 
16 15 16 
17 16 17 
18 17 18 
19 18 19 
20 19 20 
21 20 21 
22 21 22 
23 22 23 
24 23 24 
25 24 1 
1 2 1 14
26 2 25 
27 25 26 
28 26 27 
29 27 28 
30 28 29 
31 29 30 
32 30 31 
33 31 32 
34 32 33 
35 33 34 
36 34 35 
37 35 36 
38 36 37 
39 37 2 
2 1 2 71
40 23 46 38 
41 39 47 4 
42 38 48 22 
43 5 49 39 
44 40 50 17 
45 10 51 41 
46 42 51 12 
47 15 50 43 
48 20 48 44 
49 45 49 7 
50 1 47 46 
51 24 46 23 
52 4 47 3 
53 38 46 37 
54 25 47 39 
55 36 48 38 
56 39 49 26 
57 33 50 40 
58 41 51 29 
59 43 50 32 
60 30 51 42 
61 44 48 35 
62 27 49 45 
63 46 47 2 
64 22 48 21 
65 6 49 5 
66 17 50 16 
67 11 51 10 
68 12 51 11 
69 16 50 15 
70 7 49 6 
71 21 48 20 
72 1 46 24 
73 3 47 1 
74 20 44 19 
75 8 45 7 
76 15 43 14 
77 13 42 12 
78 10 41 9 
79 18 40 17 
80 23 38 22 
81 5 39 4 
82 36 38 37 
83 25 39 26 
84 33 40 34 
85 28 41 29 
86 30 42 31 
87 31 43 32 
88 34 44 35 
89 27 45 28 
90 37 46 2 
91 2 47 25 
92 35 48 36 
93 26 49 27 
94 32 50 33 
95 29 51 30 
96 19 54 18 
97 9 53 8 
98 14 52 13 
99 42 52 31 
100 31 52 43 
101 28 53 41 
102 40 54 34 
103 45 53 28 
104 34 54 44 
105 44 54 19 
106 8 53 45 
107 43 52 14 
108 13 52 42 
109 18 54 40 
110 41 53 9 
$EndElements
