// Gmsh project created on Sat Oct  1 15:50:27 2022
SetFactory("OpenCASCADE");
//+
Point(1) = {0 , 0.125, 0, 1.0};
//+
Point(2) = {0.088, 0.088, 0, 1.0};
//+
Point(3) = {0.125, 0, 0, 1.0};
//+
Point(4) = {0.088, -0.088, 0, 1.0};
//+
Point(5) = {0, -0.125, 0, 1.0};
//+
Point(6) = {-0.088, -0.088, 0, 1.0};
//+
Point(7) = {-0.125, 0, 0, 1.0};
//+
Point(8) = {-0.088, 0.088, 0, 1.0};
//+
Line(1) = {8, 1};
//+
Line(2) = {1, 2};
//+
Line(3) = {2, 3};
//+
Line(4) = {3, 4};
//+
Line(5) = {4, 5};
//+
Line(6) = {5, 6};
//+
Line(7) = {6, 7};
//+
Line(8) = {7, 8};
//+
Curve Loop(1) = {8, 1, 2, 3, 4, 5, 6, 7};
//+
Plane Surface(1) = {1};
//+
Recombine Surface {1};
